{
    "basename": "ast-subroutine2-089a910",
    "cmd": "lfortran --show-ast {infile} -o {outfile}",
    "infile": "tests/subroutine2.f90",
    "infile_hash": "2ec15b9c7f7ae68616d236f8e2f173bcac390805fbb6d9945999ace4",
    "outfile": null,
    "outfile_hash": null,
    "stdout": "ast-subroutine2-089a910.stdout",
    "stdout_hash": "c849751f52d01626a01018f2793de26b0a36acd73c61478fdbfeb614",
    "stderr": null,
    "stderr_hash": null,
    "returncode": 0
}